@S1 (30-SM) : DUMP servers in BranchServer.<init>():18
@S1 (30-SM) : - S3(1) in BranchServer.<init>():18
@S1 (30-SM) : - S1(2) in BranchServer.<init>():18
@S1 (30-SM) : - Client branch20 in BranchServer.<init>():18
@S1 (30-SM) : - - S2(1) in BranchServer.<init>():18
@S1 (30-SM) : - - S3(2) in BranchServer.<init>():18
@S1 (30-SM) : - Client branch10 in BranchServer.<init>():18
@S1 (30-SM) : - - S1(1) in BranchServer.<init>():18
@S1 (30-SM) : - - S2(2) in BranchServer.<init>():18
@S1 (30-SM) : - - S3(3) in BranchServer.<init>():18
@S1 (30-SM) : - Client branch30 in BranchServer.<init>():18
@S1 (30-SM) : - - S3(1) in BranchServer.<init>():18
@S1 (30-SM) : - - S1(2) in BranchServer.<init>():18
@S1 (30-SM) : Waiting for new message in ServerModule.bubble():516
@S1 (30-SM) : serverDownNotify S3 size=2 in BranchServer.<init>():24
@S1 (30-SM) : removing S3(1) primary=S3 in BranchServer.<init>():24
@S1 (30-SM) : Message Loop Received: Deposit $30000 into A/C 30.00000 in ServerModule.bubble():516
@S1 (30-SM) : receiveUpdateHist() in ServerModule.receiveUpdateHist():130
@S1 (30-SM) : waitResponse() completed for uid=1143608781 in ServerModule.sendSyncRequest():222
@S1 (30-SM) : 30.00000's balance = 30000 [Deposit S/N=G3D001] in ServerModule.sendUpdateHistResponse():308
@S1 (30-SM) : sent updateHistResponse to G3 | uid=1432950767 in ServerModule.sendUpdateHistResponse():328
@S1 (30-SM) : Waiting for new message in ServerModule.bubble():516
@S1 (30-SM) : Message Loop Received: Query A/C 30.00000 in ServerModule.bubble():516
@S1 (30-SM) : receiveUpdateHist() in ServerModule.receiveUpdateHist():130
@S1 (30-SM) : waitResponse() completed for uid=1143608782 in ServerModule.sendSyncRequest():222
@S1 (30-SM) : 30.00000's balance = 30000 [Query S/N=G3D001] in ServerModule.sendUpdateHistResponse():308
@S1 (30-SM) : sent updateHistResponse to G3 | uid=567038059 in ServerModule.sendUpdateHistResponse():328
@S1 (30-SM) : Waiting for new message in ServerModule.bubble():516
@S1 (30-SM) : Message Loop Received: Query A/C 30.00000 in ServerModule.bubble():516
@S1 (30-SM) : receiveUpdateHist() in ServerModule.receiveUpdateHist():130
@S1 (30-SM) : waitResponse() completed for uid=1143608783 in ServerModule.sendSyncRequest():222
@S1 (30-SM) : 30.00000's balance = 30000 [Query S/N=G3D001] in ServerModule.sendUpdateHistResponse():308
@S1 (30-SM) : sent updateHistResponse to G3 | uid=199020256 in ServerModule.sendUpdateHistResponse():328
@S1 (30-SM) : Waiting for new message in ServerModule.bubble():516
@S1 (30-SM) : Message Loop Received: Query A/C 30.00000 in ServerModule.bubble():516
@S1 (30-SM) : receiveUpdateHist() in ServerModule.receiveUpdateHist():130
@S1 (30-SM) : waitResponse() completed for uid=1143608784 in ServerModule.sendSyncRequest():222
@S1 (30-SM) : 30.00000's balance = 30000 [Query S/N=G3D001] in ServerModule.sendUpdateHistResponse():308
@S1 (30-SM) : sent updateHistResponse to G3 | uid=1184537449 in ServerModule.sendUpdateHistResponse():328
@S1 (30-SM) : Waiting for new message in ServerModule.bubble():516
@S1 (30-SM) : Message Loop Received: Query A/C 30.00000 in ServerModule.bubble():516
@S1 (30-SM) : receiveUpdateHist() in ServerModule.receiveUpdateHist():130
@S1 (30-SM) : waitResponse() completed for uid=1143608785 in ServerModule.sendSyncRequest():222
@S1 (30-SM) : 30.00000's balance = 30000 [Query S/N=G3D001] in ServerModule.sendUpdateHistResponse():308
@S1 (30-SM) : sent updateHistResponse to G3 | uid=472117696 in ServerModule.sendUpdateHistResponse():328
@S1 (30-SM) : Waiting for new message in ServerModule.bubble():516
@S1 (30-SM) : Message Loop Received: Query A/C 30.00000 in ServerModule.bubble():516
@S1 (30-SM) : receiveUpdateHist() in ServerModule.receiveUpdateHist():130
@S1 (30-SM) : waitResponse() completed for uid=1143608786 in ServerModule.sendSyncRequest():222
@S1 (30-SM) : 30.00000's balance = 30000 [Query S/N=G3D001] in ServerModule.sendUpdateHistResponse():308
@S1 (30-SM) : sent updateHistResponse to G3 | uid=1351281530 in ServerModule.sendUpdateHistResponse():328
@S1 (30-SM) : Waiting for new message in ServerModule.bubble():516
@S1 (30-SM) : Message Loop Received: Query A/C 30.00000 in ServerModule.bubble():516
@S1 (30-SM) : receiveUpdateHist() in ServerModule.receiveUpdateHist():130
@S1 (30-SM) : waitResponse() completed for uid=1143608787 in ServerModule.sendSyncRequest():222
@S1 (30-SM) : 30.00000's balance = 30000 [Query S/N=G3D001] in ServerModule.sendUpdateHistResponse():308
@S1 (30-SM) : sent updateHistResponse to G3 | uid=1930362243 in ServerModule.sendUpdateHistResponse():328
@S1 (30-SM) : Waiting for new message in ServerModule.bubble():516
@S1 (30-SM) : Message Loop Received: Query A/C 30.00000 in ServerModule.bubble():516
@S1 (30-SM) : receiveUpdateHist() in ServerModule.receiveUpdateHist():130
@S1 (30-SM) : waitResponse() completed for uid=1143608788 in ServerModule.sendSyncRequest():222
@S1 (30-SM) : 30.00000's balance = 30000 [Query S/N=G3D001] in ServerModule.sendUpdateHistResponse():308
@S1 (30-SM) : sent updateHistResponse to G3 | uid=1884473020 in ServerModule.sendUpdateHistResponse():328
@S1 (30-SM) : Waiting for new message in ServerModule.bubble():516
